R Camp | day 1
…
summarize()
calculate a single summary row for the entire table

8 | select()

Use the select() function to drop a column you no longer need, to select a few columns to create a new sub-table, or rearrange the order of your table’s columns.

Drop a single column with a minus sign

library("dplyr")

# Drop the grumpy column
select(all_cats, -grumpy)

## # A tibble: 2,785 x 11
##    name      color            age gender country  fearful_of_peop~ playful
##    <chr>     <chr>          <int> <chr>  <chr>               <int>   <int>
##  1 Latte     grey and brown     3 Male   Austral~                2       5
##  2 Othello   butterscotch      15 Female Thailand                1       7
##  3 Hershey   tabby              5 Male   Peru                    1       6
##  4 Aboulomri brown              3 Female UK                      1       2
##  5 Scratches white             11 Male   Canada                  1       5
##  6 Tuna      salt and pepp~    NA Male   Germany                 1       7
##  7 Zonker    white              4 Female China                   5       5
##  8 Ovidius   brown             10 Male   Spain                   2       5
##  9 Delia     tabby              2 Female Canada                  4       5
## 10 Hotdog    salt and pepp~     8 Female Spain                   4       6
## # ... with 2,775 more rows, and 4 more variables:
## #   friendly_to_people <int>, clumsy <int>, greedy <int>,
## #   owner_phone <chr>

Drop multiple columns with -c(col_1, col_2)

# Drop the grumpy and greedy columns
select(all_cats, -c(grumpy, greedy))

## # A tibble: 2,785 x 10
##    name      color            age gender country  fearful_of_peop~ playful
##    <chr>     <chr>          <int> <chr>  <chr>               <int>   <int>
##  1 Latte     grey and brown     3 Male   Austral~                2       5
##  2 Othello   butterscotch      15 Female Thailand                1       7
##  3 Hershey   tabby              5 Male   Peru                    1       6
##  4 Aboulomri brown              3 Female UK                      1       2
##  5 Scratches white             11 Male   Canada                  1       5
##  6 Tuna      salt and pepp~    NA Male   Germany                 1       7
##  7 Zonker    white              4 Female China                   5       5
##  8 Ovidius   brown             10 Male   Spain                   2       5
##  9 Delia     tabby              2 Female Canada                  4       5
## 10 Hotdog    salt and pepp~     8 Female Spain                   4       6
## # ... with 2,775 more rows, and 3 more variables:
## #   friendly_to_people <int>, clumsy <int>, owner_phone <chr>

Keep only three columns

# Keep the name, grumpy and greedy columns
select(all_cats, c(name, grumpy, greedy))

## # A tibble: 2,785 x 3
##    name      grumpy greedy
##    <chr>      <int>  <int>
##  1 Latte          2      2
##  2 Othello        2      2
##  3 Hershey        1      3
##  4 Aboulomri      7      7
##  5 Scratches      3      7
##  6 Tuna           1      2
##  7 Zonker         3      3
##  8 Ovidius        3      6
##  9 Delia          5      6
## 10 Hotdog         3      3
## # ... with 2,775 more rows

Rearrange: Move the age and country columns directly after name

# Move the `age` and `country` columns directly after `name`
# Leave `everything()` else in same order
select(all_cats, name, age, country, everything())

## # A tibble: 2,785 x 12
##    name      age country  color     gender grumpy fearful_of_peop~ playful
##    <chr>   <int> <chr>    <chr>     <chr>   <int>            <int>   <int>
##  1 Latte       3 Austral~ grey and~ Male        2                2       5
##  2 Othello    15 Thailand buttersc~ Female      2                1       7
##  3 Hershey     5 Peru     tabby     Male        1                1       6
##  4 Aboulo~     3 UK       brown     Female      7                1       2
##  5 Scratc~    11 Canada   white     Male        3                1       5
##  6 Tuna       NA Germany  salt and~ Male        1                1       7
##  7 Zonker      4 China    white     Female      3                5       5
##  8 Ovidius    10 Spain    brown     Male        3                2       5
##  9 Delia       2 Canada   tabby     Female      5                4       5
## 10 Hotdog      8 Spain    salt and~ Female      3                4       6
## # ... with 2,775 more rows, and 4 more variables:
## #   friendly_to_people <int>, clumsy <int>, greedy <int>,
## #   owner_phone <chr>
…
Which cats are the oldest?

Are there cats from Australia?

What are the oldest cats from Australia?

library("dplyr")

# Sort by the grumpy column
all_cats <- arrange(all_cats, grumpy)

# Enter the table name to view the ordered data
all_cats

## # A tibble: 2,785 x 12
##    name     color      age gender country  grumpy fearful_of_peop~ playful
##    <chr>    <chr>    <int> <chr>  <chr>     <int>            <int>   <int>
##  1 Hershey  tabby        5 Male   Peru          1                1       6
##  2 Tuna     salt an~    NA Male   Germany       1                1       7
##  3 Ludwig   white       15 Male   Peru          1                3       6
##  4 Beastie  peaches~    13 Male   Thailand      1                2       5
##  5 Hayley   grey an~     1 Female USA           1                6       7
##  6 Fuzzina~ peaches~     5 Male   New Zea~      1                2       6
##  7 Desiree  black        9 Male   Thailand      1                1       7
##  8 Zoloft   butters~    20 Female UK            1                2       7
##  9 Dinky    salt an~     4 Male   Peru          1                1       7
## 10 Butters~ brown        6 Male   Thailand      1                1       7
## # ... with 2,775 more rows, and 4 more variables:
## #   friendly_to_people <int>, clumsy <int>, greedy <int>,
## #   owner_phone <chr>
…
